module bitbucket.org/long174/go-odoo

go 1.15

require (
	github.com/iancoleman/strcase v0.0.0-20191112232945-16388991a334
	github.com/kolo/xmlrpc v0.0.0-20200310150728-e0350524596b
	github.com/spf13/cobra v0.0.7
)
